{
"type": "FeatureCollection",
"name": "Bury St Edmunds - Tower.kml",
"crs": { "type": "name", "properties": { "name": "urn:ogc:def:crs:OGC:1.3:CRS84" } },
"features": [
{ "type": "Feature", "properties": { "Name": "Bury St Edmunds - Tower", "BNG_E": 584547, "BNG_N": 265297, "CED23CD": "E58001754", "CED23NM": "Tower ED", "Field Name": "Field Value", "GlobalID": "{561896E5-D1EE-408F-BE3A-B6450D034F2E}", "LAT": 52.254902, "LONG": "0.70237", "Shape__Area": 7732513.5153350001, "Shape__Length": 15770.20155 }, "geometry": { "type": "Polygon", "coordinates": [ [ [ 0.714330464557464, 52.258793765965102 ], [ 0.713718619302641, 52.257701756345099 ], [ 0.713819583381867, 52.256355019172098 ], [ 0.714336612915384, 52.255894329591598 ], [ 0.717674953467627, 52.255848964816103 ], [ 0.717110517500418, 52.254958160417097 ], [ 0.717860135213139, 52.254419367869403 ], [ 0.717835495948991, 52.252555694368702 ], [ 0.717299305879404, 52.252076988727502 ], [ 0.715646387108909, 52.2517868013243 ], [ 0.714703936568931, 52.249886729239002 ], [ 0.712094329866576, 52.248489902150098 ], [ 0.712069712617213, 52.246763927637097 ], [ 0.714027275952687, 52.2463349530586 ], [ 0.717021794346064, 52.246358623847598 ], [ 0.71709688514241, 52.245861361073601 ], [ 0.720872834472713, 52.246610680240103 ], [ 0.719851955482135, 52.245896850934898 ], [ 0.720117242876772, 52.245203708509202 ], [ 0.723014598194947, 52.2427312685736 ], [ 0.723296458239525, 52.242118642422298 ], [ 0.725004498600001, 52.241473049522902 ], [ 0.72513463536702, 52.2411094341305 ], [ 0.727909558163178, 52.239731406632501 ], [ 0.729419081545884, 52.237762980053901 ], [ 0.729020825110671, 52.2366627975588 ], [ 0.725497002167109, 52.236267738964301 ], [ 0.724314544389594, 52.2347545593409 ], [ 0.716229224826545, 52.236871002061399 ], [ 0.713626996171632, 52.237949353676299 ], [ 0.712366160117906, 52.239011637245198 ], [ 0.711228895963645, 52.238894337658202 ], [ 0.709553470090274, 52.239272309138101 ], [ 0.704354146667111, 52.2390089430668 ], [ 0.704640773334083, 52.239246711817799 ], [ 0.703773133979631, 52.2406432540742 ], [ 0.699184638752316, 52.240586394016901 ], [ 0.692595733186392, 52.240057030480898 ], [ 0.690146870296007, 52.240209958593901 ], [ 0.689910429305894, 52.239569667573697 ], [ 0.688831419010492, 52.239749871743598 ], [ 0.688619390794196, 52.239537048526898 ], [ 0.68217854304187, 52.242576515545103 ], [ 0.678200992938262, 52.244713672545899 ], [ 0.679179272532706, 52.2485074708067 ], [ 0.673898641831079, 52.2489326379525 ], [ 0.675616219129893, 52.251550992324702 ], [ 0.675824602448733, 52.254647083239 ], [ 0.679025105701068, 52.254407242852899 ], [ 0.682497577052574, 52.253649407677798 ], [ 0.685238506242692, 52.257326308277797 ], [ 0.686105198815479, 52.257360523979997 ], [ 0.690334514756139, 52.2599053481784 ], [ 0.689981103556598, 52.260119372802798 ], [ 0.687422636936764, 52.259130833261999 ], [ 0.685662885699815, 52.259937141360197 ], [ 0.687499154877209, 52.260906116919699 ], [ 0.681372835120935, 52.264496038177498 ], [ 0.682160201545399, 52.265230004077601 ], [ 0.684240097393417, 52.265740205839201 ], [ 0.687768991628051, 52.265756178410001 ], [ 0.689593116825198, 52.266156137062403 ], [ 0.691782932693495, 52.267317570242803 ], [ 0.694917872081753, 52.269752371146197 ], [ 0.697349048700347, 52.270563779989899 ], [ 0.702147284195079, 52.268618550076297 ], [ 0.707430766971396, 52.271346457730203 ], [ 0.709015109105309, 52.2687471118453 ], [ 0.70856591486649, 52.268182751537303 ], [ 0.708686807408667, 52.266728471757297 ], [ 0.709464746651766, 52.265375180026702 ], [ 0.709341602813308, 52.2643168684316 ], [ 0.711918918264846, 52.261591203432701 ], [ 0.714249478438348, 52.260324454066598 ], [ 0.714330464557464, 52.258793765965102 ], [ 0.714330464557464, 52.258793765965102 ] ] ] } }
]
}
