<?xml version="1.0" encoding="UTF-8" standalone="no"?>
<svg
   enable-background="new 0 0 2954 1772"
   height="364"
   version="1.1"
   viewBox="0 0 1512 364"
   width="1512"
   id="svg336"
   sodipodi:docname="Suffolk_Flag.svg"
   inkscape:version="1.2.1 (9c6d41e410, 2022-07-14)"
   xmlns:inkscape="http://www.inkscape.org/namespaces/inkscape"
   xmlns:sodipodi="http://sodipodi.sourceforge.net/DTD/sodipodi-0.dtd"
   xmlns="http://www.w3.org/2000/svg"
   xmlns:svg="http://www.w3.org/2000/svg">
  <defs
     id="defs340" />
  <sodipodi:namedview
     id="namedview338"
     pagecolor="#ffffff"
     bordercolor="#000000"
     borderopacity="0.25"
     inkscape:showpageshadow="2"
     inkscape:pageopacity="0.0"
     inkscape:pagecheckerboard="0"
     inkscape:deskcolor="#d1d1d1"
     showgrid="false"
     inkscape:zoom="0.81184858"
     inkscape:cx="353.5142"
     inkscape:cy="378.76521"
     inkscape:window-width="1920"
     inkscape:window-height="991"
     inkscape:window-x="-9"
     inkscape:window-y="-9"
     inkscape:window-maximized="1"
     inkscape:current-layer="svg336" />
  <path
     d="M 0,0 H 1512 V 364 H 0 Z"
     fill="#0065c4"
     id="path262"
     style="stroke-width:0.324258" />
  <path
     d="m 1047.3118,243.01807 c -37.8015,-2.73184 -150.89029,-9.92805 -293.24968,-9.92805 -142.35934,0 -255.44813,7.19621 -293.25018,9.92805 -1.19056,0.0861 -2.37293,0.10847 -3.52612,0.0735 105.58047,11.73222 487.97213,12.24165 593.55268,0 -1.1537,0.035 -2.3356,0.0127 -3.5267,-0.0735 z"
     fill="#b28c0b"
     stroke="#15314d"
     stroke-linejoin="round"
     stroke-miterlimit="10"
     stroke-width="3.24258"
     id="path264" />
  <g
     id="g288"
     transform="scale(0.51184834,0.20541761)">
    <g
       stroke="#15314d"
       stroke-linejoin="round"
       stroke-miterlimit="10"
       stroke-width="10"
       id="g282">
      <path
         d="M 1001.458,534.554 C 942.941,377.952 926.84,319.182 729.789,194.1 L 746.349,334.556 606,352 c 168.5,161.5 229.415,163.108 395.458,182.554 z"
         fill="#fdcc00"
         id="path266" />
      <path
         d="m 938.792,385.695 12.957,109.889 -109.806,13.648"
         fill="none"
         id="path268" />
      <path
         d="M 764.895,216.969 782.06,362.554 636.586,380.635"
         fill="none"
         id="path270" />
      <path
         d="M 798.549,240.311 816.11,389.248 667.287,407.745"
         fill="none"
         id="path272" />
      <path
         d="m 832.306,265.849 17.643,149.639 -0.28,0.357 -149.525,18.585"
         fill="none"
         id="path274" />
      <path
         d="m 866.939,297.947 17.038,144.507 -144.396,17.947"
         fill="none"
         id="path276" />
      <path
         d="M 901.472,331.845 917.623,468.83 780.742,485.844"
         fill="none"
         id="path278" />
      <path
         d="m 2202.915,1338.687 c 6.299,61.417 10.45,99.2 11.106,120.267 L 635.394,221.367 l 9.037,27.187 c 1.504,-0.873 3.247,-1.381 5.112,-1.381 5.638,0 10.208,4.57 10.208,10.208 0,5.638 -4.57,10.208 -10.208,10.208 -5.638,0 -10.208,-4.57 -10.208,-10.208 0,-0.405 0.03,-0.803 0.076,-1.196 l -29.499,-2.362 1578.651,1237.604 c -20.614,4.392 -58.296,9.378 -119.441,17.921 57.379,51.652 247.379,75.152 263.771,69.012 2.049,-17.383 -66.122,-196.283 -129.978,-239.673 z"
         fill="#fdcc00"
         id="path280" />
    </g>
    <path
       d="m 2242.609,1480.406 c -2.605,-5.354 -10.696,-1.416 -8.094,3.938 l 6.332,21.856 -22.734,-0.933 c -5.827,-1.247 -7.709,7.548 -1.893,8.799 55.444,11.922 51.298,17.515 26.389,-33.66 z"
       fill="#15314d"
       id="path284" />
    <path
       d="m 2130.059,1445.562 25.539,-32.411"
       fill="none"
       stroke="#15314d"
       stroke-linejoin="round"
       stroke-miterlimit="10"
       stroke-width="10"
       id="path286" />
  </g>
  <g
     id="g312"
     transform="scale(0.51184834,0.20541761)">
    <g
       stroke="#15314d"
       stroke-linejoin="round"
       stroke-miterlimit="10"
       stroke-width="10"
       id="g306">
      <path
         d="M 1944.971,534.554 C 2003.487,377.952 2019.588,319.182 2216.639,194.1 L 2200.08,334.556 2340.428,352 c -168.5,161.5 -229.415,163.108 -395.457,182.554 z"
         fill="#fdcc00"
         id="path290" />
      <path
         d="m 2007.635,385.695 -12.955,109.889 109.804,13.648"
         fill="none"
         id="path292" />
      <path
         d="m 2181.533,216.969 -17.165,145.585 145.474,18.081"
         fill="none"
         id="path294" />
      <path
         d="m 2147.879,240.311 -17.561,148.937 148.823,18.497"
         fill="none"
         id="path296" />
      <path
         d="m 2114.121,265.849 -17.642,149.639 0.28,0.357 149.524,18.585"
         fill="none"
         id="path298" />
      <path
         d="m 2079.488,297.947 -17.037,144.507 144.397,17.947"
         fill="none"
         id="path300" />
      <path
         d="m 2044.955,331.845 -16.15,136.985 136.881,17.014"
         fill="none"
         id="path302" />
      <path
         d="m 743.513,1338.687 c -6.299,61.417 -10.45,99.2 -11.106,120.267 l 1578.627,-1237.587 -9.036,27.187 c -1.505,-0.873 -3.248,-1.381 -5.112,-1.381 -5.638,0 -10.208,4.57 -10.208,10.208 0,5.638 4.57,10.208 10.208,10.208 5.638,0 10.208,-4.57 10.208,-10.208 0,-0.405 -0.029,-0.803 -0.076,-1.196 l 29.499,-2.362 -1578.652,1237.604 c 20.614,4.392 58.296,9.378 119.441,17.921 -57.379,51.652 -247.379,75.152 -263.771,69.012 -2.05,-17.383 66.122,-196.283 129.978,-239.673 z"
         fill="#fdcc00"
         id="path304" />
    </g>
    <path
       d="m 703.818,1480.406 c 2.605,-5.354 10.696,-1.416 8.094,3.938 l -6.332,21.856 22.734,-0.933 c 5.827,-1.247 7.709,7.548 1.893,8.799 -55.444,11.922 -51.297,17.515 -26.389,-33.66 z"
       fill="#15314d"
       id="path308" />
    <path
       d="M 816.369,1445.562 790.83,1413.151"
       fill="none"
       stroke="#15314d"
       stroke-linejoin="round"
       stroke-miterlimit="10"
       stroke-width="10"
       id="path310" />
  </g>
  <g
     stroke="#15314d"
     stroke-linejoin="round"
     stroke-miterlimit="10"
     stroke-width="10"
     id="g334"
     transform="scale(0.51184834,0.20541761)">
    <g
       fill="#fdcc00"
       id="g330">
      <path
         d="m 2063.046,904.892 18.683,5.615 c 42.127,-71.121 37.284,-129.586 44.861,-203.396 -65.145,-59.029 -167.854,-37.83 -189.662,67.889 95.436,4.479 125.849,70.788 126.118,129.892 z"
         id="path314" />
      <path
         d="m 1426.611,788.5 c 11.007,-70.502 -8.785,-129.809 -26.437,-196.328 -81.555,-39.366 -175.915,13.22 -162.882,122.397 86.808,-24.524 136.087,21.591 157.292,73.931 z"
         id="path316" />
      <path
         d="m 1546.253,592.172 c -17.651,66.519 -37.444,125.826 -26.437,196.328 h 32.028 c 21.204,-52.339 70.483,-98.455 157.291,-73.931 13.033,-109.177 -81.326,-161.763 -162.882,-122.397 z"
         id="path318" />
      <path
         d="M 883.381,904.892 C 883.65,845.789 914.063,779.479 1009.5,775 987.692,669.281 884.983,648.082 819.837,707.111 c 7.578,73.81 2.734,132.275 44.861,203.396 z"
         id="path320" />
      <path
         d="m 2152.178,588.5 c -51.25,148 -3.25,226.025 -82.584,340.93 -108.503,157.152 -266,71.737 -272.667,-55.333 -86,149.738 -227.44,89.435 -268.749,-48.846 -41.25,-138.083 41.416,-227.417 40.75,-383.821 -0.441,-103.321 -95.693,-182.263 -95.714,-182.28 -0.021,0.018 -95.273,78.959 -95.714,182.28 -0.667,156.404 82,245.737 40.75,383.821 -41.309,138.281 -182.75,198.584 -268.75,48.846 -6.667,127.071 -164.164,212.486 -272.667,55.333 C 797.5,814.525 845.5,736.5 794.25,588.5 772.287,525.075 680,440.25 622.333,447.666 c 72.937,97.332 71.531,132.07 101.667,212.18 76.527,203.432 118.033,363.379 144.735,501.563 2.379,12.311 12.712,21.092 24.666,21.994 2.253,0.17 4.563,0.061 6.889,-0.358 73.854,-13.299 294.796,-48.331 572.924,-48.331 278.128,0 499.07,35.032 572.923,48.331 14.666,2.641 28.729,-7.005 31.556,-21.636 26.702,-138.184 68.207,-298.13 144.735,-501.563 30.135,-80.109 28.729,-114.848 101.666,-212.18 -57.666,-7.416 -149.953,77.409 -171.916,140.834 z"
         id="path322" />
      <path
         d="m 819.513,992.494 c 0.853,2.836 2.796,5.218 5.405,6.621 2.608,1.402 5.667,1.712 8.503,0.859 l 78.42,-23.567 c 5.906,-1.775 9.255,-8.002 7.48,-13.908 l -15.642,-52.047 c -1.775,-5.906 -8.002,-9.256 -13.908,-7.48 l -78.419,23.566 c -5.906,1.775 -9.255,8.002 -7.48,13.908 z"
         id="path324" />
      <path
         d="m 1554.834,788.5 h -163.24 c -6.167,0 -11.167,5 -11.167,11.167 v 54.238 c 0,6.167 5,11.167 11.167,11.167 h 163.24 c 6.167,0 11.167,-5 11.167,-11.167 v -54.238 c 0,-6.167 -5,-11.167 -11.167,-11.167 z"
         id="path326" />
      <path
         d="m 2126.915,992.494 c -0.853,2.836 -2.797,5.218 -5.405,6.621 -2.607,1.402 -5.667,1.712 -8.503,0.859 l -78.42,-23.567 c -5.906,-1.775 -9.256,-8.002 -7.48,-13.908 l 15.642,-52.047 c 1.775,-5.906 8.002,-9.256 13.908,-7.48 l 78.419,23.566 c 5.906,1.775 9.256,8.002 7.48,13.908 z"
         id="path328" />
    </g>
    <path
       d="m 2097.611,1067.113 c -491.784,-101.532 -759.818,-95.308 -1248.795,0"
       fill="none"
       id="path332" />
  </g>
</svg>
